{
    "KPackageStructure": "Plasma/Applet",
    "KPlugin": {
        "Authors": [
            {
                "Email": "wilderkde@gmail.com",
                "Name": "Viranch Mehta, Jacopo De Simoi",
                "Name[ar]": "Viranch Mehta, Jacopo De Simoi",
                "Name[az]": "Viranch Mehta, Jacopo De Simoi",
                "Name[be]": "Viranch Mehta, Jacopo De Simoi",
                "Name[bg]": "Viranch Mehta, Jacopo De Simoi",
                "Name[ca@valencia]": "Viranch Mehta, Jacopo De Simoi",
                "Name[ca]": "Viranch Mehta, Jacopo De Simoi",
                "Name[cs]": "Viranch Mehta, Jacopo De Simoi",
                "Name[da]": "Viranch Mehta, Jacopo De Simoi",
                "Name[de]": "Viranch Mehta, Jacopo De Simoi",
                "Name[en_GB]": "Viranch Mehta, Jacopo De Simoi",
                "Name[eo]": "Viranch Mehta, Jacopo De Simoi",
                "Name[es]": "Viranch Mehta, Jacopo De Simoi",
                "Name[et]": "Viranch Mehta, Jacopo De Simoi",
                "Name[eu]": "Viranch Mehta, Jacopo De Simoi",
                "Name[fi]": "Viranch Mehta, Jacopo De Simoi",
                "Name[fr]": "Viranch Mehta, Jacopo De Simoi",
                "Name[gl]": "Viranch Mehta, Jacopo De Simoi",
                "Name[hi]": "विरांच मेहता, जैकोपो डी सिमोई",
                "Name[hu]": "Viranch Mehta, Jacopo De Simoi",
                "Name[ia]": "Viranch Mehta, Jacopo De Simoi",
                "Name[id]": "Viranch Mehta, Jacopo De Simoi",
                "Name[is]": "Viranch Mehta, Jacopo De Simoi",
                "Name[it]": "Viranch Mehta, Jacopo De Simoi",
                "Name[ja]": "Viranch Mehta, Jacopo De Simoi",
                "Name[ka]": "Viranch Mehta, Jacopo De Simoi",
                "Name[ko]": "Viranch Mehta, Jacopo De Simoi",
                "Name[lt]": "Viranch Mehta, Jacopo De Simoi",
                "Name[nl]": "Viranch Mehta, Jacopo De Simoi",
                "Name[nn]": "Viranch Mehta, Jacopo De Simoi",
                "Name[pl]": "Viranch Mehta, Jacopo De Simoi",
                "Name[pt]": "Viranch Mehta, Jacopo De Simoi",
                "Name[pt_BR]": "Viranch Mehta, Jacopo De Simoi",
                "Name[ro]": "Viranch Mehta, Jacopo De Simoi",
                "Name[ru]": "Viranch Mehta, Jacopo De Simoi",
                "Name[sk]": "Viranch Mehta, Jacopo De Simoi",
                "Name[sl]": "Viranch Mehta, Jacopo De Simoi",
                "Name[sv]": "Viranch Mehta",
                "Name[ta]": "விராஞ்சு மேத்தா, ஜாக்கோப்போ டீ சிமோயி",
                "Name[tr]": "Viranch Mehta, Jacopo De Simoi",
                "Name[uk]": "Viranch Mehta, Jacopo De Simoi",
                "Name[vi]": "Viranch Mehta, Jacopo De Simoi",
                "Name[x-test]": "xxViranch Mehta, Jacopo De Simoixx",
                "Name[zh_CN]": "Viranch Mehta, Jacopo De Simoi"
            }
        ],
        "BugReportUrl": "https://bugs.kde.org/enter_bug.cgi?product=plasmashell&component=Disks %26 Devices",
        "Category": "System Information",
        "Description": "Notifications and access for devices",
        "Description[ar]": "إخطارات ووصول الأجهزة",
        "Description[az]": "Cihazlar üçün bildirişlər və onlara giriş",
        "Description[be]": "Апавяшчэнні і доступ да прылад",
        "Description[bg]": "Известия и достъп за устройства",
        "Description[ca@valencia]": "Notificacions i accés als dispositius",
        "Description[ca]": "Notificacions i accés als dispositius",
        "Description[cs]": "Upozorňování a přístup k zařízením",
        "Description[da]": "Bekendtgørelser og adgang til enheder",
        "Description[de]": "Benachrichtigungen und Zugriff für Geräte",
        "Description[en_GB]": "Notifications and access for devices",
        "Description[eo]": "Atentigoj kaj aliro por aparatoj",
        "Description[es]": "Notificaciones y accesos de dispositivos",
        "Description[et]": "Seadmetest teatamine ja nende kasutamine",
        "Description[eu]": "Gailuetarako jakinarazpenak eta sarbidea",
        "Description[fi]": "Ilmoitukset ja pääsy laitteisiin",
        "Description[fr]": "Notifications et accès aux périphériques",
        "Description[gl]": "Notificacións e acceso a dispositivos",
        "Description[hi]": "उपकरणों के लिए सूचनाएं और अभिगम",
        "Description[hu]": "Eszközök elérése, értesítő üzenetek kezelése",
        "Description[ia]": "Notificationes e accesso pro dispositivos",
        "Description[id]": "Notifikasi dan akses untuk peranti",
        "Description[is]": "Tilkynningar um og aðgangur að tækjum",
        "Description[it]": "Notifiche e accesso per dispositivi",
        "Description[ja]": "新しいデバイスの通知とアクセスを提供します",
        "Description[ka]": "გაფრთხილებები და მოწყობილობებთან წვდომა",
        "Description[ko]": "장치가 연결된 것을 알려 주고 접근할 수 있도록 합니다",
        "Description[lt]": "Pranešimai apie įrenginius ir prieiga prie jų",
        "Description[nl]": "Meldingen en toegang voor apparaten",
        "Description[nn]": "Varsling og tilgang til einingar",
        "Description[pa]": "ਡਿਵਾਈਸਾਂ ਲਈ ਨੋਟੀਫਿਕੇਸ਼ਨ ਅਤੇ ਪਹੁੰਚ",
        "Description[pl]": "Powiadomienia i dostęp do urządzeń",
        "Description[pt]": "Notificações e acesso aos dispositivos",
        "Description[pt_BR]": "Notificações e acesso aos dispositivos",
        "Description[ro]": "Notificări și acces pentru dispozitive",
        "Description[ru]": "Уведомление о подключаемых устройствах и доступ к ним",
        "Description[sk]": "Upozornenia a prístup k zariadeniam",
        "Description[sl]": "Obvestila in dostop do naprav",
        "Description[sv]": "Underrättelser och åtkomst av enheter",
        "Description[ta]": "புதிய சாதனங்களுக்கான அறிவிப்புகள் மற்றும் அணுகல்",
        "Description[tr]": "Aygıt erişimi ve bildirimler",
        "Description[uk]": "Сповіщення і доступ до пристроїв",
        "Description[vi]": "Thông báo và cách truy cập cho các thiết bị",
        "Description[x-test]": "xxNotifications and access for devicesxx",
        "Description[zh_CN]": "设备的通知和访问",
        "Description[zh_TW]": "新裝置的通知與存取",
        "EnabledByDefault": true,
        "FormFactors": [
            "tablet",
            "desktop"
        ],
        "Icon": "device-notifier",
        "Id": "org.kde.plasma.devicenotifier",
        "License": "GPL-2.0+",
        "Name": "Disks & Devices",
        "Name[ar]": "الأجهزة والأقراص",
        "Name[az]": "Disklər və Qurğular",
        "Name[be]": "Дыскі і прылады",
        "Name[bg]": "Дискове и устройства",
        "Name[ca@valencia]": "Discs i dispositius",
        "Name[ca]": "Discs i dispositius",
        "Name[cs]": "Disky & Zařízení",
        "Name[da]": "Diske og enheder",
        "Name[de]": "Datenträger & Geräte",
        "Name[en_GB]": "Disks & Devices",
        "Name[eo]": "Diskoj & Aparatoj",
        "Name[es]": "Discos y dispositivos",
        "Name[et]": "Kettad ja seadmed",
        "Name[eu]": "Diskoak eta gailuak",
        "Name[fi]": "Levyt ja laitteet",
        "Name[fr]": "Disques & périphériques",
        "Name[gl]": "Discos e dispositivos",
        "Name[hi]": "डिस्क और उपकरण",
        "Name[hsb]": "Tačele a graty",
        "Name[hu]": "Lemezek és eszközök",
        "Name[ia]": "Discos & Dispositivos",
        "Name[id]": "Peranti & Disk",
        "Name[is]": "Diskar og tæki",
        "Name[it]": "Dischi e dispositivi",
        "Name[ja]": "ディスクとデバイス",
        "Name[ka]": "დისკები და მოწყობილობები",
        "Name[ko]": "디스크와 장치",
        "Name[lt]": "Diskai ir įrenginiai",
        "Name[ml]": "ഡിസ്കുകളും ഉപകരണങ്ങളും",
        "Name[nl]": "Schijven & apparaten",
        "Name[nn]": "Diskar og einingar",
        "Name[pa]": "ਡਿਸਕ ਤੇ ਡਿਵਾਈਸ",
        "Name[pl]": "Dyski i urządzenia",
        "Name[pt]": "Discos & Dispositivos",
        "Name[pt_BR]": "Discos e dispositivos",
        "Name[ro]": "Disc și dispozitive",
        "Name[ru]": "Диски и устройства",
        "Name[sk]": "Disky a zariadenia",
        "Name[sl]": "Diski in naprave",
        "Name[sv]": "Diskar och enheter",
        "Name[ta]": "வட்டுகளும் சாதனங்களும்",
        "Name[tg]": "Дискҳо ва дастгоҳҳо",
        "Name[tr]": "Diskler ve Aygıtlar",
        "Name[uk]": "Диски і пристрої",
        "Name[vi]": "Đĩa & Thiết bị",
        "Name[x-test]": "xxDisks & Devicesxx",
        "Name[zh_CN]": "磁盘和设备",
        "Name[zh_TW]": "硬碟與裝置",
        "Version": "1.0",
        "Website": "https://userbase.kde.org/Plasma/DeviceNotifier"
    },
    "X-Plasma-API": "declarativeappletscript",
    "X-Plasma-MainScript": "ui/main.qml",
    "X-Plasma-NotificationArea": "true",
    "X-Plasma-NotificationAreaCategory": "Hardware",
    "X-Plasma-Provides": [
        "org.kde.plasma.removabledevices"
    ]
}
